%YAML 1.1
%TAG !u! tag:unity3d.com,2011:
--- !u!114 &11400000
MonoBehaviour:
  m_ObjectHideFlags: 0
  m_CorrespondingSourceObject: {fileID: 0}
  m_PrefabInstance: {fileID: 0}
  m_PrefabAsset: {fileID: 0}
  m_GameObject: {fileID: 0}
  m_Enabled: 1
  m_EditorHideFlags: 0
  m_Script: {fileID: 11500000, guid: 243c06f7c56f9c745877d674b433b6fa, type: 3}
  m_Name: MarioCoin
  m_EditorClassIdentifier: 
  Artwork: {fileID: 21300000, guid: 56e04f9b4909b79409a5a22a1adf9126, type: 3}
  Points: 10
  RotationSpeed: 40
